{
  "category": [{
      "key": "microservice",
      "text": "Microservice"
    },
    {
      "key": "monolityque",
      "text": "Monolytique"
    }
  ],
  "subcategory": [],
  "defaultUser": [
    {
      "email": "admin@demo.com",
      "contact": "0000000000",
      "user": "Compte généré automatiquement",
      "status": "active",
      "role": "admin"
    },
    {
      "email": "grebejordan@gmail.com",
      "contact": "0000000001",
      "user": "Compte généré automatiquement",
      "status": "active",
      "role": "admin"
    }
  ],
  "defaultProfile": [
    {
      "title": "Master",
      "code": "master",
      "status": "active",
      "ability": [{
        "action": "manage",
        "subject": "all"
      }]
    }
  ],
  "passwordLevel": {
    "score": [0, 1, 2, 3, 4, 5],
    "message": [
      "trop devinable : mot de passe risqué. (hypothèses < 10^3)",
      "très devinable : protection contre les attaques en ligne étranglées. (hypothèses < 10^6)",
      "quelque peu devinable : protection contre les attaques en ligne non étranglées. (hypothèses < 10^8)",
      "impossible à deviner en toute sécurité : protection modérée contre le scénario de hachage lent hors ligne. (hypothèses < 10^10)",
      "très imprévisible : forte protection contre le scénario de hachage lent hors ligne. (estimations >= 10^10)"
    ]
  },
  "profileCode": [
    "master"
  ],
  "ability": [
    "all",
    "Miscellaneous",
    "Dashboard",
    "Auth"
  ]
}